postcode,active
3029,459
3064,331
3030,327
3021,262
3023,200
3020,190
3037,156
3076,152
3175,147
3073,116
3031,113
3024,110
3337,105
3338,105
3060,96
3046,83
3977,82
3250,75
3074,74
3081,73
3022,73
3044,72
3012,69
3011,69
3051,66
3058,65
3082,64
3019,63
3754,59
3121,57
3429,56
3137,56
3032,54
3048,54
3072,54
3805,53
3028,53
3047,51
3000,51
3040,50
3750,50
3190,50
3066,46
3075,46
3752,46
3083,43
3038,42
3802,42
3090,39
3065,37
3803,37
3216,36
3336,36
3196,36
3053,35
3976,35
3070,33
3810,32
3186,32
3039,30
3109,30
3034,27
3056,26
3027,26
3013,26
3059,25
3136,25
3088,24
3042,24
3043,23
3036,23
3026,22
3068,22
3003,22
3004,22
3173,22
3199,21
3006,21
3025,21
3055,21
3204,21
3071,21
3177,21
3150,20
3806,20
3033,20
3335,20
3214,20
3181,19
3809,19
3978,19
3125,19
3163,19
3550,19
3084,18
3122,18
3015,18
3052,18
3049,18
3140,18
3057,17
3141,16
3101,16
3207,16
3756,16
3138,16
3201,16
3182,15
3108,15
3215,15
3168,15
3008,14
3975,14
3174,14
3844,14
3169,14
3128,13
3018,13
3192,13
3116,13
3016,12
3178,12
3095,12
3041,12
3145,12
3054,12
3165,12
3305,12
3171,12
3765,12
3195,11
3185,11
3152,11
3146,11
3170,11
3350,11
3200,11
3211,11
3217,11
3249,11
3183,10
3910,10
3148,10
3155,10
3085,9
3149,9
3104,9
3123,9
3144,9
3340,9
3444,9
3133,8
3134,8
3131,8
3161,8
3078,8
3167,8
3219,8
3555,8
3079,7
3106,7
3067,7
3206,7
3193,7
3156,7
3172,7
3437,7
3135,7
3153,7
3179,7
3139,7
3212,7
3089,6
3166,6
3111,6
3764,6
3187,6
3198,6
3912,6
3777,6
3442,6
3130,5
3220,5
3427,5
3103,5
3218,5
3658,5
3151,5
3551,5
3332,5
3143,4
3124,4
3061,4
3931,4
3753,4
3184,4
3807,4
3224,4
3757,4
3132,4
3099,4
3114,4
3189,4
3723,4
3147,3
3934,3
3226,3
3093,3
3188,3
3191,3
3950,3
3164,3
3221,3
3223,3
3228,3
3355,3
3515,3
3941,3
3096,3
3434,3
3435,3
3441,3
3523,3
3142,2
3205,2
3162,2
3107,2
3356,2
3804,2
3002,2
3160,2
3194,2
3377,2
3400,2
3431,2
3820,2
3401,2
3758,2
3936,2
3063,2
3159,2
3775,2
3796,2
3875,2
3940,2
3232,2
3254,2
3328,2
3331,2
3433,2
3659,2
3767,2
3782,2
3797,2
3799,2
3823,2
3984,2
3087,1
3105,1
3930,1
3127,1
3129,1
3197,1
3094,1
3730,1
3115,1
3840,1
3939,1
3352,1
3126,1
3158,1
3451,1
3498,1
3564,1
3953,1
3213,1
3225,1
3240,1
3251,1
3342,1
3463,1
3632,1
3761,1
3818,1
3821,1
3915,1
3925,1
3050,1
3154,1
3233,1
3266,1
3270,1
3285,1
3293,1
3304,1
3341,1
3399,1
3409,1
3418,1
3438,1
3447,1
3448,1
3453,1
3461,1
3517,1
3518,1
3549,1
3594,1
3691,1
3766,1
3770,1
3778,1
3781,1
3791,1
3812,1
3922,1
3928,1
3962,1
3990,1
3102,0
3113,0
3630,0
3929,0
3943,0
3280,0
3850,0
3944,0
3321,0
3585,0
3927,0
3942,0
3996,0
3180,0
3222,0
3230,0
3231,0
3573,0
3631,0
3636,0
3672,0
3722,0
3825,0
3847,0
3862,0
3097,0
3300,0
3450,0
3458,0
3500,0
3579,0
3614,0
3616,0
3629,0
3638,0
3660,0
3717,0
3786,0
3808,0
3860,0
3911,0
3918,0
3919,0
3920,0
3933,0
3260,0
3272,0
3333,0
3351,0
3357,0
3364,0
3379,0
3380,0
3388,0
3419,0
3440,0
3446,0
3462,0
3465,0
3478,0
3496,0
3612,0
3620,0
3622,0
3624,0
3644,0
3666,0
3676,0
3677,0
3690,0
3741,0
3759,0
3793,0
3815,0
3824,0
3865,0
3913,0
3960,0
3988,0
3995,0
3001,0
3005,0
3010,0
3014,0
3017,0
3035,0
3045,0
3062,0
3069,0
3077,0
3080,0
3086,0
3091,0
3110,0
3118,0
3157,0
3176,0
3202,0
3210,0
3227,0
3234,0
3235,0
3236,0
3237,0
3238,0
3239,0
3241,0
3242,0
3243,0
3256,0
3257,0
3259,0
3264,0
3265,0
3267,0
3268,0
3269,0
3271,0
3273,0
3274,0
3275,0
3276,0
3277,0
3278,0
3279,0
3281,0
3282,0
3283,0
3284,0
3286,0
3287,0
3288,0
3289,0
3290,0
3291,0
3292,0
3294,0
3301,0
3302,0
3303,0
3306,0
3307,0
3309,0
3310,0
3311,0
3312,0
3314,0
3315,0
3317,0
3318,0
3319,0
3320,0
3322,0
3323,0
3324,0
3325,0
3329,0
3330,0
3334,0
3339,0
3345,0
3346,0
3353,0
3354,0
3358,0
3359,0
3360,0
3361,0
3363,0
3365,0
3370,0
3371,0
3373,0
3374,0
3375,0
3378,0
3381,0
3382,0
3384,0
3385,0
3386,0
3387,0
3390,0
3391,0
3392,0
3393,0
3395,0
3396,0
3398,0
3402,0
3405,0
3407,0
3408,0
3412,0
3413,0
3414,0
3415,0
3416,0
3417,0
3420,0
3421,0
3422,0
3423,0
3424,0
3425,0
3428,0
3430,0
3432,0
3439,0
3449,0
3452,0
3456,0
3457,0
3459,0
3460,0
3464,0
3467,0
3468,0
3469,0
3470,0
3471,0
3472,0
3475,0
3477,0
3480,0
3482,0
3483,0
3484,0
3485,0
3487,0
3488,0
3489,0
3490,0
3491,0
3494,0
3495,0
3501,0
3502,0
3505,0
3506,0
3507,0
3509,0
3510,0
3512,0
3516,0
3520,0
3521,0
3522,0
3525,0
3527,0
3529,0
3530,0
3531,0
3533,0
3536,0
3537,0
3538,0
3539,0
3540,0
3542,0
3543,0
3544,0
3546,0
3552,0
3554,0
3556,0
3557,0
3558,0
3559,0
3560,0
3561,0
3562,0
3563,0
3565,0
3566,0
3567,0
3568,0
3569,0
3570,0
3571,0
3572,0
3574,0
3575,0
3576,0
3578,0
3580,0
3581,0
3583,0
3584,0
3586,0
3587,0
3588,0
3589,0
3590,0
3591,0
3595,0
3596,0
3597,0
3599,0
3605,0
3607,0
3608,0
3610,0
3613,0
3617,0
3618,0
3619,0
3621,0
3623,0
3633,0
3634,0
3635,0
3637,0
3639,0
3640,0
3641,0
3643,0
3646,0
3647,0
3649,0
3655,0
3661,0
3662,0
3663,0
3664,0
3665,0
3669,0
3670,0
3671,0
3673,0
3674,0
3675,0
3678,0
3682,0
3683,0
3685,0
3687,0
3688,0
3689,0
3693,0
3694,0
3695,0
3697,0
3698,0
3699,0
3700,0
3701,0
3704,0
3705,0
3707,0
3708,0
3709,0
3711,0
3712,0
3713,0
3714,0
3715,0
3718,0
3719,0
3720,0
3721,0
3724,0
3725,0
3726,0
3727,0
3728,0
3732,0
3733,0
3734,0
3735,0
3736,0
3737,0
3738,0
3739,0
3740,0
3744,0
3746,0
3747,0
3749,0
3751,0
3755,0
3760,0
3762,0
3763,0
3779,0
3780,0
3783,0
3785,0
3787,0
3788,0
3789,0
3792,0
3795,0
3798,0
3800,0
3801,0
3813,0
3814,0
3816,0
3822,0
3826,0
3828,0
3830,0
3831,0
3832,0
3833,0
3835,0
3837,0
3838,0
3839,0
3841,0
3842,0
3845,0
3846,0
3851,0
3852,0
3853,0
3854,0
3855,0
3856,0
3857,0
3858,0
3859,0
3861,0
3863,0
3864,0
3866,0
3869,0
3870,0
3871,0
3872,0
3873,0
3874,0
3876,0
3878,0
3879,0
3880,0
3882,0
3884,0
3885,0
3886,0
3887,0
3888,0
3889,0
3890,0
3891,0
3892,0
3893,0
3895,0
3896,0
3898,0
3900,0
3902,0
3903,0
3904,0
3905,0
3908,0
3909,0
3916,0
3921,0
3923,0
3926,0
3932,0
3935,0
3937,0
3938,0
3945,0
3946,0
3951,0
3954,0
3956,0
3957,0
3958,0
3959,0
3961,0
3964,0
3965,0
3966,0
3967,0
3970,0
3971,0
3973,0
3974,0
3979,0
3980,0
3981,0
3985,0
3986,0
3987,0
3989,0
3991,0
3992,0
3999,216
9999,22